-18.12199 -0.1107894 1.688364 -0.4945485 0.07153212 -0.1315901 -0.6978635 0.8155866 -0.4575836 0.1978926
-16.38205 -0.4027788 1.915268 0.5993786 0.2610974 0.770625 1.070283 -0.8136223 0.00633482 -0.5319334
-20.47646 1.950177 0.02965533 0.1839037 -0.05727904 0.02374512 -0.09004485 0.3425563 0.597148 0.388186
24.32014 -0.5062889 0.7528862 -0.3844308 0.3677247 -0.2910747 0.0584768 0.07537736 -0.1760261 0.09572102
-21.90782 0.3214015 -1.461328 -1.852733 -0.3111913 0.6006316 0.974293 0.1810691 -0.3941829 -0.2141165
-21.20462 -0.08047925 -0.2328226 1.46125 0.1174685 0.7372533 0.2530826 0.1698471 0.8308575 0.5930648
-21.10726 -0.07753432 -1.052941 0.5325891 2.125846 -0.9962781 0.2104942 0.0915938 -0.006809202 -0.2180466
23.78644 1.662342 -0.3650844 -0.01643587 -0.2079149 0.3607913 0.1753953 -0.09121987 0.2163918 -0.01116001
-19.49983 0.582285 -0.6123748 -0.07367583 0.1660338 0.234118 0.6114131 0.4651554 -0.6810362 0.7961926
22.32824 0.807868 -0.7434128 0.06901611 -0.1870849 0.2714232 -0.2494888 0.1346266 0.2737455 -0.3155725
-21.92956 0.115988 -0.4429012 1.29074 -0.7167215 -0.4448246 0.04706302 0.1305576 -0.8015377 -0.8826572
22.98854 0.9760124 -0.7032662 -0.1040504 -0.1330929 0.3280495 0.005059072 0.01396312 0.112198 -0.247501
25.22088 -0.9470538 1.591161 0.3665792 0.08154772 -0.03948341 0.3713635 -0.2575347 -0.5025297 0.4882751
-17.72336 -3.896042 0.3588349 -0.7427566 -0.8494423 -0.7106724 0.4284583 0.4129556 0.7913528 -0.07697101
-21.41908 -1.939689 -0.294534 -0.535582 0.5330892 1.368583 -1.35045 -0.4945094 -0.219257 -0.02094807
-18.68968 1.871198 1.337858 -0.5472331 0.1605026 -0.04521371 -0.5307187 0.323288 0.5224611 -0.6801211
24.0224 -0.9827758 0.1130735 0.202169 0.05532821 -0.0942458 -0.08940727 0.05321703 -0.1162281 0.1293223
24.15671 1.561662 0.7746286 -0.4017301 -0.1063124 -0.2232266 0.3655672 0.007455294 0.04679647 0.04487542
23.16524 -1.920795 -1.290192 0.4987841 -0.05453288 -0.01144923 -0.008159879 -0.0510466 0.2668461 -0.2159557
23.31048 0.8068884 -0.03300115 -0.1417396 -0.09998475 -0.00483833 -0.1314496 -0.03917326 0.1065466 -0.01575366
23.37223 -0.1553693 0.02310591 -0.2382804 0.3013123 -0.3655031 -0.4747413 0.09911047 -0.09805397 -0.05865645
-20.31455 0.8312045 -0.3581479 -0.9263987 -0.2002136 -1.042701 -0.2381265 -1.414295 0.1684266 0.4143803
23.08893 -1.094581 -0.6727153 0.2109485 -0.02079853 0.0972708 -0.129007 0.05702266 -0.1646195 0.0962242
-20.98399 0.6271485 -0.3221138 1.044238 -1.296914 -0.3913896 -0.5814911 -0.2119811 -0.3212416 0.245259
